400000	MGPy8EG_A14N23LO_TT_bWN_550_385	550.0	385.0	0.347	0.347	1.0	70000	80000	110000
400001	MGPy8EG_A14N23LO_TT_bWN_550_400	550.0	400.0	0.347	0.347	1.0	70000	80000	110000
400002	MGPy8EG_A14N23LO_TT_bWN_550_430	550.0	430.0	0.347	0.347	1.0	70000	80000	110000
400003	MGPy8EG_A14N23LO_TT_bWN_600_435	600.0	435.0	0.205	0.205	1.0	40000	50000	70000
400004	MGPy8EG_A14N23LO_TT_bWN_600_450	600.0	450.0	0.205	0.205	1.0	40000	50000	70000
400005	MGPy8EG_A14N23LO_TT_bWN_600_480	600.0	480.0	0.205	0.205	1.0	40000	50000	70000
400006	MGPy8EG_A14N23LO_TT_bWN_650_485	650.0	485.0	0.125	0.125	1.0	30000	30000	40000
400007	MGPy8EG_A14N23LO_TT_bWN_650_500	650.0	500.0	0.125	0.125	1.0	30000	30000	40000
400008	MGPy8EG_A14N23LO_TT_bWN_650_530	650.0	530.0	0.125	0.125	1.0	30000	30000	40000
400009	MGPy8EG_A14N23LO_TT_bWN_700_535	700.0	535.0	0.0783	0.0783	1.0	20000	20000	30000
400010	MGPy8EG_A14N23LO_TT_bWN_700_550	700.0	550.0	0.0783	0.0783	1.0	20000	20000	30000
400011	MGPy8EG_A14N23LO_TT_bWN_700_580	700.0	580.0	0.0783	0.0783	1.0	20000	20000	30000
400012	MGPy8EG_A14N23LO_TT_bWN_750_585	750.0	585.0	0.05	0.05	1.0	10000	20000	20000
400013	MGPy8EG_A14N23LO_TT_bWN_750_600	750.0	600.0	0.05	0.05	1.0	10000	20000	20000
400014	MGPy8EG_A14N23LO_TT_bWN_750_630	750.0	630.0	0.05	0.05	1.0	10000	20000	20000
400015	MGPy8EG_A14N23LO_TT_bWN_800_635	800.0	635.0	0.0326	0.0326	1.0	10000	10000	10000
400016	MGPy8EG_A14N23LO_TT_bWN_800_650	800.0	650.0	0.0326	0.0326	1.0	10000	10000	10000
400017	MGPy8EG_A14N23LO_TT_bWN_800_680	800.0	680.0	0.0326	0.0326	1.0	10000	10000	10000
500000	MGPy8EG_A14N23LO_TT_directTT_850_662	850.0	662.0	0.0216	0.0216	1.0	10000	10000	10000
500001	MGPy8EG_A14N23LO_TT_directTT_1000_700	1000.0	700.0	0.00683	0.00683	1.0	10000	10000	10000
500002	MGPy8EG_A14N23LO_TT_directTT_1050_600	1050.0	600.0	0.00476	0.00476	1.0	10000	10000	10000
500003	MGPy8EG_A14N23LO_TT_directTT_1100_100	1100.0	100.0	0.00335	0.00335	1.0	10000	10000	10000
500004	MGPy8EG_A14N23LO_TT_directTT_1100_300	1100.0	300.0	0.00335	0.00335	1.0	10000	10000	10000
500005	MGPy8EG_A14N23LO_TT_directTT_1100_500	1100.0	500.0	0.00335	0.00335	1.0	10000	10000	10000
500006	MGPy8EG_A14N23LO_TT_directTT_1100_700	1100.0	700.0	0.00335	0.00335	1.0	10000	10000	10000
500007	MGPy8EG_A14N23LO_TT_directTT_1150_1	1150.0	1.0	0.00238	0.00238	1.0	10000	10000	10000
500008	MGPy8EG_A14N23LO_TT_directTT_1150_200	1150.0	200.0	0.00238	0.00238	1.0	10000	10000	10000
500009	MGPy8EG_A14N23LO_TT_directTT_1150_400	1150.0	400.0	0.00238	0.00238	1.0	10000	10000	10000
500010	MGPy8EG_A14N23LO_TT_directTT_1150_600	1150.0	600.0	0.00238	0.00238	1.0	10000	10000	10000
500011	MGPy8EG_A14N23LO_TT_directTT_1200_100	1200.0	100.0	0.0017	0.0017	1.0	10000	10000	10000
500012	MGPy8EG_A14N23LO_TT_directTT_1200_300	1200.0	300.0	0.0017	0.0017	1.0	10000	10000	10000
500013	MGPy8EG_A14N23LO_TT_directTT_1200_500	1200.0	500.0	0.0017	0.0017	1.0	10000	10000	10000
500014	MGPy8EG_A14N23LO_TT_directTT_1200_700	1200.0	700.0	0.0017	0.0017	1.0	10000	10000	10000
500015	MGPy8EG_A14N23LO_TT_directTT_1250_1	1250.0	1.0	0.00122	0.00122	1.0	10000	10000	10000
500016	MGPy8EG_A14N23LO_TT_directTT_1250_200	1250.0	200.0	0.00122	0.00122	1.0	10000	10000	10000
500017	MGPy8EG_A14N23LO_TT_directTT_1250_400	1250.0	400.0	0.00122	0.00122	1.0	10000	10000	10000
500018	MGPy8EG_A14N23LO_TT_directTT_1250_600	1250.0	600.0	0.00122	0.00122	1.0	10000	10000	10000
500019	MGPy8EG_A14N23LO_TT_directTT_1300_100	1300.0	100.0	0.000887	0.000887	1.0	10000	10000	10000
500020	MGPy8EG_A14N23LO_TT_directTT_1300_300	1300.0	300.0	0.000887	0.000887	1.0	10000	10000	10000
500021	MGPy8EG_A14N23LO_TT_directTT_1300_500	1300.0	500.0	0.000887	0.000887	1.0	10000	10000	10000
