ldn/C:dataset_number/I:crossSection/D:kFactor/D:genFiltEff/D:processGroup/C:crossSectionRef/C:crossSectionTotalRelUncertDOWN/D:crossSectionTotalRelUncertUP/D
mc15_13TeV.503462.MGPy8EG_A14N23LO_TT_directTT_500_200.evgen.EVNT.e8258;503462;6.09E-04;1.0;1.0000E+00;Unsorted;#UNKNOWN#;0.0813;0.0813
mc15_13TeV.503463.MGPy8EG_A14N23LO_TT_directTT_500_250.evgen.EVNT.e8258;503463;6.09E-04;1.0;1.0000E+00;Unsorted;#UNKNOWN#;0.0813;0.0813
mc15_13TeV.503464.MGPy8EG_A14N23LO_TT_directTT_500_300.evgen.EVNT.e8258;503464;6.09E-04;1.0;1.0000E+00;Unsorted;#UNKNOWN#;0.0813;0.0813
mc15_13TeV.503465.MGPy8EG_A14N23LO_TT_directTT_500_312.evgen.EVNT.e8258;503465;6.09E-04;1.0;1.0000E+00;Unsorted;#UNKNOWN#;0.0813;0.0813
mc15_13TeV.503466.MGPy8EG_A14N23LO_TT_directTT_500_325.evgen.EVNT.e8258;503466;6.09E-04;1.0;1.0000E+00;Unsorted;#UNKNOWN#;0.0813;0.0813
mc15_13TeV.503467.MGPy8EG_A14N23LO_TT_directTT_550_250.evgen.EVNT.e8258;503467;3.47E-04;1.0;1.0000E+00;Unsorted;#UNKNOWN#;0.0781;0.0781
mc15_13TeV.503468.MGPy8EG_A14N23LO_TT_directTT_550_300.evgen.EVNT.e8258;503468;3.47E-04;1.0;1.0000E+00;Unsorted;#UNKNOWN#;0.0781;0.0781
mc15_13TeV.503469.MGPy8EG_A14N23LO_TT_directTT_550_350.evgen.EVNT.e8258;503469;3.47E-04;1.0;1.0000E+00;Unsorted;#UNKNOWN#;0.0781;0.0781
mc15_13TeV.503470.MGPy8EG_A14N23LO_TT_directTT_550_362.evgen.EVNT.e8258;503470;3.47E-04;1.0;1.0000E+00;Unsorted;#UNKNOWN#;0.0781;0.0781
mc15_13TeV.503471.MGPy8EG_A14N23LO_TT_directTT_550_375.evgen.EVNT.e8258;503471;3.47E-04;1.0;1.0000E+00;Unsorted;#UNKNOWN#;0.0781;0.0781
mc15_13TeV.503472.MGPy8EG_A14N23LO_TT_directTT_600_250.evgen.EVNT.e8258;503472;2.05E-04;1.0;1.0000E+00;Unsorted;#UNKNOWN#;0.0810;0.0810
mc15_13TeV.503473.MGPy8EG_A14N23LO_TT_directTT_600_300.evgen.EVNT.e8258;503473;2.05E-04;1.0;1.0000E+00;Unsorted;#UNKNOWN#;0.0810;0.0810
mc15_13TeV.503474.MGPy8EG_A14N23LO_TT_directTT_600_350.evgen.EVNT.e8258;503474;2.05E-04;1.0;1.0000E+00;Unsorted;#UNKNOWN#;0.0810;0.0810
mc15_13TeV.503475.MGPy8EG_A14N23LO_TT_directTT_600_400.evgen.EVNT.e8258;503475;2.05E-04;1.0;1.0000E+00;Unsorted;#UNKNOWN#;0.0810;0.0810
mc15_13TeV.503476.MGPy8EG_A14N23LO_TT_directTT_600_412.evgen.EVNT.e8258;503476;2.05E-04;1.0;1.0000E+00;Unsorted;#UNKNOWN#;0.0810;0.0810
mc15_13TeV.503477.MGPy8EG_A14N23LO_TT_directTT_600_425.evgen.EVNT.e8258;503477;2.05E-04;1.0;1.0000E+00;Unsorted;#UNKNOWN#;0.0810;0.0810
mc15_13TeV.503478.MGPy8EG_A14N23LO_TT_directTT_650_300.evgen.EVNT.e8258;503478;1.25E-04;1.0;1.0000E+00;Unsorted;#UNKNOWN#;0.0845;0.0845
mc15_13TeV.503479.MGPy8EG_A14N23LO_TT_directTT_650_350.evgen.EVNT.e8258;503479;1.25E-04;1.0;1.0000E+00;Unsorted;#UNKNOWN#;0.0845;0.0845
mc15_13TeV.503480.MGPy8EG_A14N23LO_TT_directTT_650_400.evgen.EVNT.e8258;503480;1.25E-04;1.0;1.0000E+00;Unsorted;#UNKNOWN#;0.0845;0.0845
mc15_13TeV.503481.MGPy8EG_A14N23LO_TT_directTT_650_450.evgen.EVNT.e8258;503481;1.25E-04;1.0;1.0000E+00;Unsorted;#UNKNOWN#;0.0845;0.0845
mc15_13TeV.503482.MGPy8EG_A14N23LO_TT_directTT_650_462.evgen.EVNT.e8258;503482;1.25E-04;1.0;1.0000E+00;Unsorted;#UNKNOWN#;0.0845;0.0845
mc15_13TeV.503483.MGPy8EG_A14N23LO_TT_directTT_650_475.evgen.EVNT.e8258;503483;1.25E-04;1.0;1.0000E+00;Unsorted;#UNKNOWN#;0.0845;0.0845
mc15_13TeV.503484.MGPy8EG_A14N23LO_TT_directTT_700_350.evgen.EVNT.e8258;503484;7.83E-05;1.0;1.0000E+00;Unsorted;#UNKNOWN#;0.0880;0.0880
mc15_13TeV.503485.MGPy8EG_A14N23LO_TT_directTT_700_400.evgen.EVNT.e8258;503485;7.83E-05;1.0;1.0000E+00;Unsorted;#UNKNOWN#;0.0880;0.0880
mc15_13TeV.503486.MGPy8EG_A14N23LO_TT_directTT_700_450.evgen.EVNT.e8258;503486;7.83E-05;1.0;1.0000E+00;Unsorted;#UNKNOWN#;0.0880;0.0880
mc15_13TeV.503487.MGPy8EG_A14N23LO_TT_directTT_700_500.evgen.EVNT.e8258;503487;7.83E-05;1.0;1.0000E+00;Unsorted;#UNKNOWN#;0.0880;0.0880
mc15_13TeV.503488.MGPy8EG_A14N23LO_TT_directTT_700_512.evgen.EVNT.e8258;503488;7.83E-05;1.0;1.0000E+00;Unsorted;#UNKNOWN#;0.0880;0.0880
mc15_13TeV.503489.MGPy8EG_A14N23LO_TT_directTT_700_525.evgen.EVNT.e8258;503489;7.83E-05;1.0;1.0000E+00;Unsorted;#UNKNOWN#;0.0880;0.0880
mc15_13TeV.503490.MGPy8EG_A14N23LO_TT_directTT_750_300.evgen.EVNT.e8258;503490;5.00E-05;1.0;1.0000E+00;Unsorted;#UNKNOWN#;0.0916;0.0916
mc15_13TeV.503491.MGPy8EG_A14N23LO_TT_directTT_750_400.evgen.EVNT.e8258;503491;5.00E-05;1.0;1.0000E+00;Unsorted;#UNKNOWN#;0.0916;0.0916
mc15_13TeV.503492.MGPy8EG_A14N23LO_TT_directTT_750_500.evgen.EVNT.e8258;503492;5.00E-05;1.0;1.0000E+00;Unsorted;#UNKNOWN#;0.0916;0.0916
mc15_13TeV.503493.MGPy8EG_A14N23LO_TT_directTT_750_550.evgen.EVNT.e8258;503493;5.00E-05;1.0;1.0000E+00;Unsorted;#UNKNOWN#;0.0916;0.0916
mc15_13TeV.503494.MGPy8EG_A14N23LO_TT_directTT_750_562.evgen.EVNT.e8258;503494;5.00E-05;1.0;1.0000E+00;Unsorted;#UNKNOWN#;0.0916;0.0916
mc15_13TeV.503495.MGPy8EG_A14N23LO_TT_directTT_750_575.evgen.EVNT.e8258;503495;5.00E-05;1.0;1.0000E+00;Unsorted;#UNKNOWN#;0.0916;0.0916
mc15_13TeV.503496.MGPy8EG_A14N23LO_TT_directTT_800_300.evgen.EVNT.e8258;503496;3.26E-05;1.0;1.0000E+00;Unsorted;#UNKNOWN#;0.0954;0.0954
mc15_13TeV.503497.MGPy8EG_A14N23LO_TT_directTT_800_400.evgen.EVNT.e8258;503497;3.26E-05;1.0;1.0000E+00;Unsorted;#UNKNOWN#;0.0954;0.0954
mc15_13TeV.503498.MGPy8EG_A14N23LO_TT_directTT_800_500.evgen.EVNT.e8258;503498;3.26E-05;1.0;1.0000E+00;Unsorted;#UNKNOWN#;0.0954;0.0954
mc15_13TeV.503499.MGPy8EG_A14N23LO_TT_directTT_800_600.evgen.EVNT.e8258;503499;3.26E-05;1.0;1.0000E+00;Unsorted;#UNKNOWN#;0.0954;0.0954
mc15_13TeV.503500.MGPy8EG_A14N23LO_TT_directTT_850_300.evgen.EVNT.e8258;503500;2.16E-05;1.0;1.0000E+00;Unsorted;#UNKNOWN#;0.0991;0.0991
mc15_13TeV.503501.MGPy8EG_A14N23LO_TT_directTT_850_400.evgen.EVNT.e8258;503501;2.16E-05;1.0;1.0000E+00;Unsorted;#UNKNOWN#;0.0991;0.0991
mc15_13TeV.503502.MGPy8EG_A14N23LO_TT_directTT_850_500.evgen.EVNT.e8258;503502;2.16E-05;1.0;1.0000E+00;Unsorted;#UNKNOWN#;0.0991;0.0991
mc15_13TeV.503503.MGPy8EG_A14N23LO_TT_directTT_850_600.evgen.EVNT.e8258;503503;2.16E-05;1.0;1.0000E+00;Unsorted;#UNKNOWN#;0.0991;0.0991
mc15_13TeV.503504.MGPy8EG_A14N23LO_TT_directTT_900_400.evgen.EVNT.e8258;503504;1.45E-05;1.0;1.0000E+00;Unsorted;#UNKNOWN#;0.103;0.103
mc15_13TeV.503505.MGPy8EG_A14N23LO_TT_directTT_900_500.evgen.EVNT.e8258;503505;1.45E-05;1.0;1.0000E+00;Unsorted;#UNKNOWN#;0.103;0.103
mc15_13TeV.503506.MGPy8EG_A14N23LO_TT_directTT_900_600.evgen.EVNT.e8258;503506;1.45E-05;1.0;1.0000E+00;Unsorted;#UNKNOWN#;0.103;0.103
mc15_13TeV.503507.MGPy8EG_A14N23LO_TT_directTT_900_700.evgen.EVNT.e8258;503507;1.45E-05;1.0;1.0000E+00;Unsorted;#UNKNOWN#;0.103;0.103
mc15_13TeV.503508.MGPy8EG_A14N23LO_TT_directTT_950_400.evgen.EVNT.e8258;503508;9.91E-06;1.0;1.0000E+00;Unsorted;#UNKNOWN#;0.108;0.108
mc15_13TeV.503509.MGPy8EG_A14N23LO_TT_directTT_950_500.evgen.EVNT.e8258;503509;9.91E-06;1.0;1.0000E+00;Unsorted;#UNKNOWN#;0.108;0.108
mc15_13TeV.503510.MGPy8EG_A14N23LO_TT_directTT_950_600.evgen.EVNT.e8258;503510;9.91E-06;1.0;1.0000E+00;Unsorted;#UNKNOWN#;0.108;0.108
mc15_13TeV.503511.MGPy8EG_A14N23LO_TT_directTT_950_700.evgen.EVNT.e8258;503511;9.91E-06;1.0;1.0000E+00;Unsorted;#UNKNOWN#;0.108;0.108
mc15_13TeV.503512.MGPy8EG_A14N23LO_TT_directTT_1000_300.evgen.EVNT.e8258;503512;6.83E-06;1.0;1.0000E+00;Unsorted;#UNKNOWN#;0.112;0.112
mc15_13TeV.503513.MGPy8EG_A14N23LO_TT_directTT_1000_400.evgen.EVNT.e8258;503513;6.83E-06;1.0;1.0000E+00;Unsorted;#UNKNOWN#;0.112;0.112
mc15_13TeV.503514.MGPy8EG_A14N23LO_TT_directTT_1000_500.evgen.EVNT.e8258;503514;6.83E-06;1.0;1.0000E+00;Unsorted;#UNKNOWN#;0.112;0.112
mc15_13TeV.503515.MGPy8EG_A14N23LO_TT_directTT_1000_600.evgen.EVNT.e8258;503515;6.83E-06;1.0;1.0000E+00;Unsorted;#UNKNOWN#;0.112;0.112
mc15_13TeV.503516.MGPy8EG_A14N23LO_TT_directTT_1050_100.evgen.EVNT.e8258;503516;4.76E-06;1.0;1.0000E+00;Unsorted;#UNKNOWN#;0.117;0.117
mc15_13TeV.503517.MGPy8EG_A14N23LO_TT_directTT_1050_300.evgen.EVNT.e8258;503517;4.76E-06;1.0;1.0000E+00;Unsorted;#UNKNOWN#;0.117;0.117
mc15_13TeV.503518.MGPy8EG_A14N23LO_TT_directTT_1050_500.evgen.EVNT.e8258;503518;4.76E-06;1.0;1.0000E+00;Unsorted;#UNKNOWN#;0.117;0.117
mc15_13TeV.503519.MGPy8EG_A14N23LO_TT_directTT_1050_700.evgen.EVNT.e8258;503519;4.76E-06;1.0;1.0000E+00;Unsorted;#UNKNOWN#;0.117;0.117
mc15_13TeV.503520.MGPy8EG_A14N23LO_TT_directTT_1100_1.evgen.EVNT.e8258;503520;3.35E-06;1.0;1.0000E+00;Unsorted;#UNKNOWN#;0.121;0.121
mc15_13TeV.503521.MGPy8EG_A14N23LO_TT_directTT_1100_200.evgen.EVNT.e8258;503521;3.35E-06;1.0;1.0000E+00;Unsorted;#UNKNOWN#;0.121;0.121
mc15_13TeV.503522.MGPy8EG_A14N23LO_TT_directTT_1100_400.evgen.EVNT.e8258;503522;3.35E-06;1.0;1.0000E+00;Unsorted;#UNKNOWN#;0.121;0.121
mc15_13TeV.503523.MGPy8EG_A14N23LO_TT_directTT_1100_600.evgen.EVNT.e8258;503523;3.35E-06;1.0;1.0000E+00;Unsorted;#UNKNOWN#;0.121;0.121
mc15_13TeV.503524.MGPy8EG_A14N23LO_TT_directTT_1150_100.evgen.EVNT.e8258;503524;2.38E-06;1.0;1.0000E+00;Unsorted;#UNKNOWN#;0.126;0.126
mc15_13TeV.503525.MGPy8EG_A14N23LO_TT_directTT_1150_300.evgen.EVNT.e8258;503525;2.38E-06;1.0;1.0000E+00;Unsorted;#UNKNOWN#;0.126;0.126
mc15_13TeV.503526.MGPy8EG_A14N23LO_TT_directTT_1150_500.evgen.EVNT.e8258;503526;2.38E-06;1.0;1.0000E+00;Unsorted;#UNKNOWN#;0.126;0.126
mc15_13TeV.503527.MGPy8EG_A14N23LO_TT_directTT_1150_700.evgen.EVNT.e8258;503527;2.38E-06;1.0;1.0000E+00;Unsorted;#UNKNOWN#;0.126;0.126
mc15_13TeV.503528.MGPy8EG_A14N23LO_TT_directTT_1200_1.evgen.EVNT.e8258;503528;1.70E-06;1.0;1.0000E+00;Unsorted;#UNKNOWN#;0.131;0.131
mc15_13TeV.503529.MGPy8EG_A14N23LO_TT_directTT_1200_200.evgen.EVNT.e8258;503529;1.70E-06;1.0;1.0000E+00;Unsorted;#UNKNOWN#;0.131;0.131
mc15_13TeV.503530.MGPy8EG_A14N23LO_TT_directTT_1200_400.evgen.EVNT.e8258;503530;1.70E-06;1.0;1.0000E+00;Unsorted;#UNKNOWN#;0.131;0.131
mc15_13TeV.503531.MGPy8EG_A14N23LO_TT_directTT_1200_600.evgen.EVNT.e8258;503531;1.70E-06;1.0;1.0000E+00;Unsorted;#UNKNOWN#;0.131;0.131
mc15_13TeV.503532.MGPy8EG_A14N23LO_TT_directTT_1250_100.evgen.EVNT.e8258;503532;1.22E-06;1.0;1.0000E+00;Unsorted;#UNKNOWN#;0.137;0.137
mc15_13TeV.503533.MGPy8EG_A14N23LO_TT_directTT_1250_300.evgen.EVNT.e8258;503533;1.22E-06;1.0;1.0000E+00;Unsorted;#UNKNOWN#;0.137;0.137
mc15_13TeV.503534.MGPy8EG_A14N23LO_TT_directTT_1250_500.evgen.EVNT.e8258;503534;1.22E-06;1.0;1.0000E+00;Unsorted;#UNKNOWN#;0.137;0.137
mc15_13TeV.503535.MGPy8EG_A14N23LO_TT_directTT_1250_700.evgen.EVNT.e8258;503535;1.22E-06;1.0;1.0000E+00;Unsorted;#UNKNOWN#;0.137;0.137
mc15_13TeV.503536.MGPy8EG_A14N23LO_TT_directTT_1300_1.evgen.EVNT.e8258;503536;8.87E-07;1.0;1.0000E+00;Unsorted;#UNKNOWN#;0.142;0.142
mc15_13TeV.503537.MGPy8EG_A14N23LO_TT_directTT_1300_200.evgen.EVNT.e8258;503537;8.87E-07;1.0;1.0000E+00;Unsorted;#UNKNOWN#;0.142;0.142
mc15_13TeV.503538.MGPy8EG_A14N23LO_TT_directTT_1300_400.evgen.EVNT.e8258;503538;8.87E-07;1.0;1.0000E+00;Unsorted;#UNKNOWN#;0.142;0.142
mc15_13TeV.503539.MGPy8EG_A14N23LO_TT_directTT_1350_100.evgen.EVNT.e8258;503539;6.46E-07;1.0;1.0000E+00;Unsorted;#UNKNOWN#;0.148;0.148
mc15_13TeV.503540.MGPy8EG_A14N23LO_TT_directTT_1350_300.evgen.EVNT.e8258;503540;6.46E-07;1.0;1.0000E+00;Unsorted;#UNKNOWN#;0.148;0.148
mc15_13TeV.503541.MGPy8EG_A14N23LO_TT_directTT_1350_500.evgen.EVNT.e8258;503541;6.46E-07;1.0;1.0000E+00;Unsorted;#UNKNOWN#;0.148;0.148
mc15_13TeV.503542.MGPy8EG_A14N23LO_TT_directTT_1400_1.evgen.EVNT.e8258;503542;4.73E-07;1.0;1.0000E+00;Unsorted;#UNKNOWN#;0.154;0.154
mc15_13TeV.503543.MGPy8EG_A14N23LO_TT_directTT_1400_200.evgen.EVNT.e8258;503543;4.73E-07;1.0;1.0000E+00;Unsorted;#UNKNOWN#;0.154;0.154
mc15_13TeV.503544.MGPy8EG_A14N23LO_TT_directTT_1400_400.evgen.EVNT.e8258;503544;4.73E-07;1.0;1.0000E+00;Unsorted;#UNKNOWN#;0.154;0.154

#lsetup  "asetup AthAnalysisBase,2.4.35" pyAMI
#getMetadata.py --timestamp="2020-12-02 10:53:34" --physicsGroups="PMG,MCGN" --fields="ldn,dataset_number,crossSection,kFactor,genFiltEff,processGroup,crossSectionRef,crossSectionTotalRelUncertDOWN,crossSectionTotalRelUncertUP" --inDS="mc15_13TeV.503462.MGPy8EG_A14N23LO_TT_directTT_500_200.evgen.EVNT.e8258,mc15_13TeV.503463.MGPy8EG_A14N23LO_TT_directTT_500_250.evgen.EVNT.e8258,mc15_13TeV.503464.MGPy8EG_A14N23LO_TT_directTT_500_300.evgen.EVNT.e8258,mc15_13TeV.503465.MGPy8EG_A14N23LO_TT_directTT_500_312.evgen.EVNT.e8258,mc15_13TeV.503466.MGPy8EG_A14N23LO_TT_directTT_500_325.evgen.EVNT.e8258,mc15_13TeV.503467.MGPy8EG_A14N23LO_TT_directTT_550_250.evgen.EVNT.e8258,mc15_13TeV.503468.MGPy8EG_A14N23LO_TT_directTT_550_300.evgen.EVNT.e8258,mc15_13TeV.503469.MGPy8EG_A14N23LO_TT_directTT_550_350.evgen.EVNT.e8258,mc15_13TeV.503470.MGPy8EG_A14N23LO_TT_directTT_550_362.evgen.EVNT.e8258,mc15_13TeV.503471.MGPy8EG_A14N23LO_TT_directTT_550_375.evgen.EVNT.e8258,mc15_13TeV.503472.MGPy8EG_A14N23LO_TT_directTT_600_250.evgen.EVNT.e8258,mc15_13TeV.503473.MGPy8EG_A14N23LO_TT_directTT_600_300.evgen.EVNT.e8258,mc15_13TeV.503474.MGPy8EG_A14N23LO_TT_directTT_600_350.evgen.EVNT.e8258,mc15_13TeV.503475.MGPy8EG_A14N23LO_TT_directTT_600_400.evgen.EVNT.e8258,mc15_13TeV.503476.MGPy8EG_A14N23LO_TT_directTT_600_412.evgen.EVNT.e8258,mc15_13TeV.503477.MGPy8EG_A14N23LO_TT_directTT_600_425.evgen.EVNT.e8258,mc15_13TeV.503478.MGPy8EG_A14N23LO_TT_directTT_650_300.evgen.EVNT.e8258,mc15_13TeV.503479.MGPy8EG_A14N23LO_TT_directTT_650_350.evgen.EVNT.e8258,mc15_13TeV.503480.MGPy8EG_A14N23LO_TT_directTT_650_400.evgen.EVNT.e8258,mc15_13TeV.503481.MGPy8EG_A14N23LO_TT_directTT_650_450.evgen.EVNT.e8258,mc15_13TeV.503482.MGPy8EG_A14N23LO_TT_directTT_650_462.evgen.EVNT.e8258,mc15_13TeV.503483.MGPy8EG_A14N23LO_TT_directTT_650_475.evgen.EVNT.e8258,mc15_13TeV.503484.MGPy8EG_A14N23LO_TT_directTT_700_350.evgen.EVNT.e8258,mc15_13TeV.503485.MGPy8EG_A14N23LO_TT_directTT_700_400.evgen.EVNT.e8258,mc15_13TeV.503486.MGPy8EG_A14N23LO_TT_directTT_700_450.evgen.EVNT.e8258,mc15_13TeV.503487.MGPy8EG_A14N23LO_TT_directTT_700_500.evgen.EVNT.e8258,mc15_13TeV.503488.MGPy8EG_A14N23LO_TT_directTT_700_512.evgen.EVNT.e8258,mc15_13TeV.503489.MGPy8EG_A14N23LO_TT_directTT_700_525.evgen.EVNT.e8258,mc15_13TeV.503490.MGPy8EG_A14N23LO_TT_directTT_750_300.evgen.EVNT.e8258,mc15_13TeV.503491.MGPy8EG_A14N23LO_TT_directTT_750_400.evgen.EVNT.e8258,mc15_13TeV.503492.MGPy8EG_A14N23LO_TT_directTT_750_500.evgen.EVNT.e8258,mc15_13TeV.503493.MGPy8EG_A14N23LO_TT_directTT_750_550.evgen.EVNT.e8258,mc15_13TeV.503494.MGPy8EG_A14N23LO_TT_directTT_750_562.evgen.EVNT.e8258,mc15_13TeV.503495.MGPy8EG_A14N23LO_TT_directTT_750_575.evgen.EVNT.e8258,mc15_13TeV.503496.MGPy8EG_A14N23LO_TT_directTT_800_300.evgen.EVNT.e8258,mc15_13TeV.503497.MGPy8EG_A14N23LO_TT_directTT_800_400.evgen.EVNT.e8258,mc15_13TeV.503498.MGPy8EG_A14N23LO_TT_directTT_800_500.evgen.EVNT.e8258,mc15_13TeV.503499.MGPy8EG_A14N23LO_TT_directTT_800_600.evgen.EVNT.e8258,mc15_13TeV.503500.MGPy8EG_A14N23LO_TT_directTT_850_300.evgen.EVNT.e8258,mc15_13TeV.503501.MGPy8EG_A14N23LO_TT_directTT_850_400.evgen.EVNT.e8258,mc15_13TeV.503502.MGPy8EG_A14N23LO_TT_directTT_850_500.evgen.EVNT.e8258,mc15_13TeV.503503.MGPy8EG_A14N23LO_TT_directTT_850_600.evgen.EVNT.e8258,mc15_13TeV.503504.MGPy8EG_A14N23LO_TT_directTT_900_400.evgen.EVNT.e8258,mc15_13TeV.503505.MGPy8EG_A14N23LO_TT_directTT_900_500.evgen.EVNT.e8258,mc15_13TeV.503506.MGPy8EG_A14N23LO_TT_directTT_900_600.evgen.EVNT.e8258,mc15_13TeV.503507.MGPy8EG_A14N23LO_TT_directTT_900_700.evgen.EVNT.e8258,mc15_13TeV.503508.MGPy8EG_A14N23LO_TT_directTT_950_400.evgen.EVNT.e8258,mc15_13TeV.503509.MGPy8EG_A14N23LO_TT_directTT_950_500.evgen.EVNT.e8258,mc15_13TeV.503510.MGPy8EG_A14N23LO_TT_directTT_950_600.evgen.EVNT.e8258,mc15_13TeV.503511.MGPy8EG_A14N23LO_TT_directTT_950_700.evgen.EVNT.e8258,mc15_13TeV.503512.MGPy8EG_A14N23LO_TT_directTT_1000_300.evgen.EVNT.e8258,mc15_13TeV.503513.MGPy8EG_A14N23LO_TT_directTT_1000_400.evgen.EVNT.e8258,mc15_13TeV.503514.MGPy8EG_A14N23LO_TT_directTT_1000_500.evgen.EVNT.e8258,mc15_13TeV.503515.MGPy8EG_A14N23LO_TT_directTT_1000_600.evgen.EVNT.e8258,mc15_13TeV.503516.MGPy8EG_A14N23LO_TT_directTT_1050_100.evgen.EVNT.e8258,mc15_13TeV.503517.MGPy8EG_A14N23LO_TT_directTT_1050_300.evgen.EVNT.e8258,mc15_13TeV.503518.MGPy8EG_A14N23LO_TT_directTT_1050_500.evgen.EVNT.e8258,mc15_13TeV.503519.MGPy8EG_A14N23LO_TT_directTT_1050_700.evgen.EVNT.e8258,mc15_13TeV.503520.MGPy8EG_A14N23LO_TT_directTT_1100_1.evgen.EVNT.e8258,mc15_13TeV.503521.MGPy8EG_A14N23LO_TT_directTT_1100_200.evgen.EVNT.e8258,mc15_13TeV.503522.MGPy8EG_A14N23LO_TT_directTT_1100_400.evgen.EVNT.e8258,mc15_13TeV.503523.MGPy8EG_A14N23LO_TT_directTT_1100_600.evgen.EVNT.e8258,mc15_13TeV.503524.MGPy8EG_A14N23LO_TT_directTT_1150_100.evgen.EVNT.e8258,mc15_13TeV.503525.MGPy8EG_A14N23LO_TT_directTT_1150_300.evgen.EVNT.e8258,mc15_13TeV.503526.MGPy8EG_A14N23LO_TT_directTT_1150_500.evgen.EVNT.e8258,mc15_13TeV.503527.MGPy8EG_A14N23LO_TT_directTT_1150_700.evgen.EVNT.e8258,mc15_13TeV.503528.MGPy8EG_A14N23LO_TT_directTT_1200_1.evgen.EVNT.e8258,mc15_13TeV.503529.MGPy8EG_A14N23LO_TT_directTT_1200_200.evgen.EVNT.e8258,mc15_13TeV.503530.MGPy8EG_A14N23LO_TT_directTT_1200_400.evgen.EVNT.e8258,mc15_13TeV.503531.MGPy8EG_A14N23LO_TT_directTT_1200_600.evgen.EVNT.e8258,mc15_13TeV.503532.MGPy8EG_A14N23LO_TT_directTT_1250_100.evgen.EVNT.e8258,mc15_13TeV.503533.MGPy8EG_A14N23LO_TT_directTT_1250_300.evgen.EVNT.e8258,mc15_13TeV.503534.MGPy8EG_A14N23LO_TT_directTT_1250_500.evgen.EVNT.e8258,mc15_13TeV.503535.MGPy8EG_A14N23LO_TT_directTT_1250_700.evgen.EVNT.e8258,mc15_13TeV.503536.MGPy8EG_A14N23LO_TT_directTT_1300_1.evgen.EVNT.e8258,mc15_13TeV.503537.MGPy8EG_A14N23LO_TT_directTT_1300_200.evgen.EVNT.e8258,mc15_13TeV.503538.MGPy8EG_A14N23LO_TT_directTT_1300_400.evgen.EVNT.e8258,mc15_13TeV.503539.MGPy8EG_A14N23LO_TT_directTT_1350_100.evgen.EVNT.e8258,mc15_13TeV.503540.MGPy8EG_A14N23LO_TT_directTT_1350_300.evgen.EVNT.e8258,mc15_13TeV.503541.MGPy8EG_A14N23LO_TT_directTT_1350_500.evgen.EVNT.e8258,mc15_13TeV.503542.MGPy8EG_A14N23LO_TT_directTT_1400_1.evgen.EVNT.e8258,mc15_13TeV.503543.MGPy8EG_A14N23LO_TT_directTT_1400_200.evgen.EVNT.e8258,mc15_13TeV.503544.MGPy8EG_A14N23LO_TT_directTT_1400_400.evgen.EVNT.e8258"
