mc.MGPy8EG_A14N23LO_TT_bWN_550_385.py
mc.MGPy8EG_A14N23LO_TT_bWN_550_400.py
mc.MGPy8EG_A14N23LO_TT_bWN_550_430.py
mc.MGPy8EG_A14N23LO_TT_bWN_600_435.py
mc.MGPy8EG_A14N23LO_TT_bWN_600_450.py
mc.MGPy8EG_A14N23LO_TT_bWN_600_480.py
mc.MGPy8EG_A14N23LO_TT_bWN_650_485.py
mc.MGPy8EG_A14N23LO_TT_bWN_650_500.py
mc.MGPy8EG_A14N23LO_TT_bWN_650_530.py
mc.MGPy8EG_A14N23LO_TT_bWN_700_535.py
mc.MGPy8EG_A14N23LO_TT_bWN_700_550.py
mc.MGPy8EG_A14N23LO_TT_bWN_700_580.py
mc.MGPy8EG_A14N23LO_TT_bWN_750_585.py
mc.MGPy8EG_A14N23LO_TT_bWN_750_600.py
mc.MGPy8EG_A14N23LO_TT_bWN_750_630.py
mc.MGPy8EG_A14N23LO_TT_bWN_800_635.py
mc.MGPy8EG_A14N23LO_TT_bWN_800_650.py
mc.MGPy8EG_A14N23LO_TT_bWN_800_680.py
