500607	MGPy8EG_A14N23LO_DM_TTpseudo_p10_c1_1LorMET	EVENTS PARTIALLY AVAILABLE	399000	0.00042681	0.24081
500608	MGPy8EG_A14N23LO_DM_TTpseudo_p20_c1_1LorMET	EVENTS PARTIALLY AVAILABLE	596000	0.00038773	0.25553
500609	MGPy8EG_A14N23LO_DM_TTpseudo_p50_c1_1LorMET	ALL EVENTS AVAILABLE	70000	0.00028908	0.30141
500610	MGPy8EG_A14N23LO_DM_TTpseudo_p100_c1_1LorMET	ALL EVENTS AVAILABLE	40000	0.00017977	0.36813
500611	MGPy8EG_A14N23LO_DM_TTpseudo_p150_c1_1LorMET	EVENTS PARTIALLY AVAILABLE	50000	0.00011645	0.42189
500612	MGPy8EG_A14N23LO_DM_TTpseudo_p200_c1_1LorMET	ALL EVENTS AVAILABLE	10000	0.000080023	0.44696
500613	MGPy8EG_A14N23LO_DM_TTpseudo_p250_c1_1LorMET	ALL EVENTS AVAILABLE	10000	0.000055733	0.47638
500614	MGPy8EG_A14N23LO_DM_TTpseudo_p300_c1_1LorMET	ALL EVENTS AVAILABLE	10000	0.000039507	0.49095
500615	MGPy8EG_A14N23LO_DM_TTpseudo_p350_c1_1LorMET	ALL EVENTS AVAILABLE	10000	0.000022357	0.51643
500616	MGPy8EG_A14N23LO_DM_TTpseudo_p400_c1_1LorMET	ALL EVENTS AVAILABLE	10000	0.000011723	0.53767
500617	MGPy8EG_A14N23LO_DM_TTpseudo_p10_c10_1LorMET	ALL EVENTS AVAILABLE	60000	0.000023743	0.32734
500618	MGPy8EG_A14N23LO_DM_TTpseudo_p10_c20_1LorMET	ALL EVENTS AVAILABLE	30000	0.00001248	0.37103
500619	MGPy8EG_A14N23LO_DM_TTpseudo_p10_c50_1LorMET	ALL EVENTS AVAILABLE	10000	0.0000039823	0.44414
500620	MGPy8EG_A14N23LO_DM_TTpseudo_p10_c75_1LorMET	ALL EVENTS AVAILABLE	10000	0.0000019787	0.48626
500621	MGPy8EG_A14N23LO_DM_TTpseudo_p10_c100_1LorMET	ALL EVENTS AVAILABLE	10000	0.0000010977	0.51228
500622	MGPy8EG_A14N23LO_DM_TTpseudo_p10_c125_1LorMET	ALL EVENTS AVAILABLE	10000	0.00000065213	0.53192
500623	MGPy8EG_A14N23LO_DM_TTpseudo_p10_c150_1LorMET	ALL EVENTS AVAILABLE	10000	0.0000004066	0.54992
500624	MGPy8EG_A14N23LO_DM_TTpseudo_p10_c175_1LorMET	ALL EVENTS AVAILABLE	10000	0.00000026393	0.56338
500625	MGPy8EG_A14N23LO_DM_TTpseudo_p10_c200_1LorMET	ALL EVENTS AVAILABLE	10000	0.0000001766	0.57989
500626	MGPy8EG_A14N23LO_DM_TTpseudo_p10_c250_1LorMET	ALL EVENTS AVAILABLE	10000	0.000000084537	0.60653
500627	MGPy8EG_A14N23LO_DM_TTpseudo_p10_c300_1LorMET	ALL EVENTS AVAILABLE	10000	0.00000004308	0.62016
500628	MGPy8EG_A14N23LO_DM_TTpseudo_p10_c500_1LorMET	ALL EVENTS AVAILABLE	10000	0.0000000045703	0.67863
500629	MGPy8EG_A14N23LO_DM_TTpseudo_p10_c1_lowMET	EVENTS PARTIALLY AVAILABLE	70000	0.00042826	0.28213
500630	MGPy8EG_A14N23LO_DM_TTpseudo_p20_c1_lowMET	EVENTS PARTIALLY AVAILABLE	120000	0.00038949	0.29143
500631	MGPy8EG_A14N23LO_DM_TTpseudo_p50_c1_lowMET	ALL EVENTS AVAILABLE	80000	0.00028926	0.31106
500632	MGPy8EG_A14N23LO_DM_TTpseudo_p100_c1_lowMET	ALL EVENTS AVAILABLE	70000	0.00017946	0.31634
500633	MGPy8EG_A14N23LO_DM_TTpseudo_p150_c1_lowMET	ALL EVENTS AVAILABLE	60000	0.00011651	0.30829
500634	MGPy8EG_A14N23LO_DM_TTpseudo_p200_c1_lowMET	ALL EVENTS AVAILABLE	30000	0.00008049	0.29481
500635	MGPy8EG_A14N23LO_DM_TTpseudo_p250_c1_lowMET	ALL EVENTS AVAILABLE	20000	0.00005597	0.28382
500636	MGPy8EG_A14N23LO_DM_TTpseudo_p300_c1_lowMET	ALL EVENTS AVAILABLE	20000	0.000039553	0.27454
500637	MGPy8EG_A14N23LO_DM_TTpseudo_p350_c1_lowMET	ALL EVENTS AVAILABLE	20000	0.000022326	0.26426
500638	MGPy8EG_A14N23LO_DM_TTpseudo_p400_c1_lowMET	ALL EVENTS AVAILABLE	20000	0.000011718	0.26019
500664	MGPy8EG_A14N23LO_DM_TTpseudo_p10_c1_2L	ALL EVENTS AVAILABLE	40000	0.000047696	0.44064
500665	MGPy8EG_A14N23LO_DM_TTpseudo_p20_c1_2L	ALL EVENTS AVAILABLE	40000	0.00004337	0.43949
500666	MGPy8EG_A14N23LO_DM_TTpseudo_p50_c1_2L	ALL EVENTS AVAILABLE	40000	0.000032122	0.44073
500667	MGPy8EG_A14N23LO_DM_TTpseudo_p100_c1_2L	ALL EVENTS AVAILABLE	30000	0.00001997	0.44493
500668	MGPy8EG_A14N23LO_DM_TTpseudo_p150_c1_2L	ALL EVENTS AVAILABLE	30000	0.000012907	0.44618
500669	MGPy8EG_A14N23LO_DM_TTpseudo_p200_c1_2L	ALL EVENTS AVAILABLE	20000	0.0000089418	0.44584
500670	MGPy8EG_A14N23LO_DM_TTpseudo_p250_c1_2L	ALL EVENTS AVAILABLE	10000	0.000006212	0.44641
500671	MGPy8EG_A14N23LO_DM_TTpseudo_p300_c1_2L	ALL EVENTS AVAILABLE	10000	0.0000043947	0.44816
500672	MGPy8EG_A14N23LO_DM_TTpseudo_p350_c1_2L	ALL EVENTS AVAILABLE	10000	0.0000024767	0.44787
500673	MGPy8EG_A14N23LO_DM_TTpseudo_p400_c1_2L	ALL EVENTS AVAILABLE	10000	0.000001302	0.45232
500674	MGPy8EG_A14N23LO_DM_TTpseudo_p10_c10_2L	ALL EVENTS AVAILABLE	30000	0.000002641	0.44344
500675	MGPy8EG_A14N23LO_DM_TTpseudo_p10_c20_2L	ALL EVENTS AVAILABLE	30000	0.0000013866	0.44615
500676	MGPy8EG_A14N23LO_DM_TTpseudo_p10_c50_2L	ALL EVENTS AVAILABLE	10000	0.0000004429	0.45076
500677	MGPy8EG_A14N23LO_DM_TTpseudo_p10_c75_2L	ALL EVENTS AVAILABLE	10000	0.00000022133	0.45385
500678	MGPy8EG_A14N23LO_DM_TTpseudo_p10_c100_2L	ALL EVENTS AVAILABLE	10000	0.00000012193	0.4540
500679	MGPy8EG_A14N23LO_DM_TTpseudo_p10_c125_2L	ALL EVENTS AVAILABLE	10000	0.00000007239	0.45961
500680	MGPy8EG_A14N23LO_DM_TTpseudo_p10_c150_2L	ALL EVENTS AVAILABLE	10000	0.000000045217	0.45551
500681	MGPy8EG_A14N23LO_DM_TTpseudo_p10_c175_2L	ALL EVENTS AVAILABLE	10000	0.000000029387	0.45964
500682	MGPy8EG_A14N23LO_DM_TTpseudo_p10_c200_2L	ALL EVENTS AVAILABLE	10000	0.000000019627	0.46349
500683	MGPy8EG_A14N23LO_DM_TTpseudo_p10_c250_2L	ALL EVENTS AVAILABLE	10000	0.0000000093683	0.46276
500684	MGPy8EG_A14N23LO_DM_TTpseudo_p10_c300_2L	ALL EVENTS AVAILABLE	10000	0.0000000047863	0.46458
500685	MGPy8EG_A14N23LO_DM_TTpseudo_p10_c500_2L	ALL EVENTS AVAILABLE	10000	0.00000000050874	0.47709